^C:\USERS\DANIL\SOURCE\REPOS\PROJECT-1\PROJECT-1.CPP
C:\WINDOWS\GLOBALIZATION\SORTING\SORTDEFAULT.NLS
F:\Студия\VC\TOOLS\MSVC\14.28.29333\BIN\HOSTX86\X86\1049\CLUI.DLL
C:\WINDOWS\SYSTEM32\TZRES.DLL
F:\Студия\VC\TOOLS\MSVC\14.28.29333\INCLUDE\IOSTREAM
F:\Студия\VC\TOOLS\MSVC\14.28.29333\INCLUDE\YVALS_CORE.H
F:\Студия\VC\TOOLS\MSVC\14.28.29333\INCLUDE\VCRUNTIME.H
F:\Студия\VC\TOOLS\MSVC\14.28.29333\INCLUDE\SAL.H
F:\Студия\VC\TOOLS\MSVC\14.28.29333\INCLUDE\CONCURRENCYSAL.H
F:\Студия\VC\TOOLS\MSVC\14.28.29333\INCLUDE\VADEFS.H
F:\Студия\VC\TOOLS\MSVC\14.28.29333\INCLUDE\XKEYCHECK.H
F:\Студия\VC\TOOLS\MSVC\14.28.29333\INCLUDE\ISTREAM
F:\Студия\VC\TOOLS\MSVC\14.28.29333\INCLUDE\OSTREAM
F:\Студия\VC\TOOLS\MSVC\14.28.29333\INCLUDE\IOS
F:\Студия\VC\TOOLS\MSVC\14.28.29333\INCLUDE\XLOCNUM
F:\Студия\VC\TOOLS\MSVC\14.28.29333\INCLUDE\CLIMITS
F:\Студия\VC\TOOLS\MSVC\14.28.29333\INCLUDE\LIMITS.H
F:\Студия\VC\TOOLS\MSVC\14.28.29333\INCLUDE\CMATH
F:\Студия\VC\TOOLS\MSVC\14.28.29333\INCLUDE\YVALS.H
C:\PROGRAM FILES (X86)\WINDOWS KITS\10\INCLUDE\10.0.18362.0\UCRT\CRTDBG.H
C:\PROGRAM FILES (X86)\WINDOWS KITS\10\INCLUDE\10.0.18362.0\UCRT\CORECRT.H
F:\Студия\VC\TOOLS\MSVC\14.28.29333\INCLUDE\VCRUNTIME_NEW_DEBUG.H
F:\Студия\VC\TOOLS\MSVC\14.28.29333\INCLUDE\VCRUNTIME_NEW.H
F:\Студия\VC\TOOLS\MSVC\14.28.29333\INCLUDE\CRTDEFS.H
F:\Студия\VC\TOOLS\MSVC\14.28.29333\INCLUDE\USE_ANSI.H
F:\Студия\VC\TOOLS\MSVC\14.28.29333\INCLUDE\CSTDLIB
C:\PROGRAM FILES (X86)\WINDOWS KITS\10\INCLUDE\10.0.18362.0\UCRT\MATH.H
C:\PROGRAM FILES (X86)\WINDOWS KITS\10\INCLUDE\10.0.18362.0\UCRT\CORECRT_MATH.H
C:\PROGRAM FILES (X86)\WINDOWS KITS\10\INCLUDE\10.0.18362.0\UCRT\STDLIB.H
C:\PROGRAM FILES (X86)\WINDOWS KITS\10\INCLUDE\10.0.18362.0\UCRT\CORECRT_MALLOC.H
C:\PROGRAM FILES (X86)\WINDOWS KITS\10\INCLUDE\10.0.18362.0\UCRT\CORECRT_SEARCH.H
C:\PROGRAM FILES (X86)\WINDOWS KITS\10\INCLUDE\10.0.18362.0\UCRT\STDDEF.H
C:\PROGRAM FILES (X86)\WINDOWS KITS\10\INCLUDE\10.0.18362.0\UCRT\CORECRT_WSTDLIB.H
F:\Студия\VC\TOOLS\MSVC\14.28.29333\INCLUDE\XTR1COMMON
F:\Студия\VC\TOOLS\MSVC\14.28.29333\INCLUDE\CSTDIO
C:\PROGRAM FILES (X86)\WINDOWS KITS\10\INCLUDE\10.0.18362.0\UCRT\STDIO.H
C:\PROGRAM FILES (X86)\WINDOWS KITS\10\INCLUDE\10.0.18362.0\UCRT\CORECRT_WSTDIO.H
C:\PROGRAM FILES (X86)\WINDOWS KITS\10\INCLUDE\10.0.18362.0\UCRT\CORECRT_STDIO_CONFIG.H
F:\Студия\VC\TOOLS\MSVC\14.28.29333\INCLUDE\ITERATOR
F:\Студия\VC\TOOLS\MSVC\14.28.29333\INCLUDE\IOSFWD
F:\Студия\VC\TOOLS\MSVC\14.28.29333\INCLUDE\CSTRING
C:\PROGRAM FILES (X86)\WINDOWS KITS\10\INCLUDE\10.0.18362.0\UCRT\STRING.H
C:\PROGRAM FILES (X86)\WINDOWS KITS\10\INCLUDE\10.0.18362.0\UCRT\CORECRT_MEMORY.H
C:\PROGRAM FILES (X86)\WINDOWS KITS\10\INCLUDE\10.0.18362.0\UCRT\CORECRT_MEMCPY_S.H
C:\PROGRAM FILES (X86)\WINDOWS KITS\10\INCLUDE\10.0.18362.0\UCRT\ERRNO.H
F:\Студия\VC\TOOLS\MSVC\14.28.29333\INCLUDE\VCRUNTIME_STRING.H
C:\PROGRAM FILES (X86)\WINDOWS KITS\10\INCLUDE\10.0.18362.0\UCRT\CORECRT_WSTRING.H
F:\Студия\VC\TOOLS\MSVC\14.28.29333\INCLUDE\CWCHAR
C:\PROGRAM FILES (X86)\WINDOWS KITS\10\INCLUDE\10.0.18362.0\UCRT\WCHAR.H
C:\PROGRAM FILES (X86)\WINDOWS KITS\10\INCLUDE\10.0.18362.0\UCRT\CORECRT_WCONIO.H
C:\PROGRAM FILES (X86)\WINDOWS KITS\10\INCLUDE\10.0.18362.0\UCRT\CORECRT_WCTYPE.H
C:\PROGRAM FILES (X86)\WINDOWS KITS\10\INCLUDE\10.0.18362.0\UCRT\CORECRT_WDIRECT.H
C:\PROGRAM FILES (X86)\WINDOWS KITS\10\INCLUDE\10.0.18362.0\UCRT\CORECRT_WIO.H
C:\PROGRAM FILES (X86)\WINDOWS KITS\10\INCLUDE\10.0.18362.0\UCRT\CORECRT_SHARE.H
C:\PROGRAM FILES (X86)\WINDOWS KITS\10\INCLUDE\10.0.18362.0\UCRT\CORECRT_WPROCESS.H
C:\PROGRAM FILES (X86)\WINDOWS KITS\10\INCLUDE\10.0.18362.0\UCRT\CORECRT_WTIME.H
C:\PROGRAM FILES (X86)\WINDOWS KITS\10\INCLUDE\10.0.18362.0\UCRT\SYS\STAT.H
C:\PROGRAM FILES (X86)\WINDOWS KITS\10\INCLUDE\10.0.18362.0\UCRT\SYS\TYPES.H
F:\Студия\VC\TOOLS\MSVC\14.28.29333\INCLUDE\XSTDDEF
F:\Студия\VC\TOOLS\MSVC\14.28.29333\INCLUDE\CSTDDEF
F:\Студия\VC\TOOLS\MSVC\14.28.29333\INCLUDE\INITIALIZER_LIST
F:\Студия\VC\TOOLS\MSVC\14.28.29333\INCLUDE\XUTILITY
F:\Студия\VC\TOOLS\MSVC\14.28.29333\INCLUDE\UTILITY
F:\Студия\VC\TOOLS\MSVC\14.28.29333\INCLUDE\TYPE_TRAITS
F:\Студия\VC\TOOLS\MSVC\14.28.29333\INCLUDE\STREAMBUF
F:\Студия\VC\TOOLS\MSVC\14.28.29333\INCLUDE\XIOSBASE
C:\PROGRAM FILES (X86)\WINDOWS KITS\10\INCLUDE\10.0.18362.0\UCRT\SHARE.H
F:\Студия\VC\TOOLS\MSVC\14.28.29333\INCLUDE\SYSTEM_ERROR
F:\Студия\VC\TOOLS\MSVC\14.28.29333\INCLUDE\__MSVC_SYSTEM_ERROR_ABI.HPP
F:\Студия\VC\TOOLS\MSVC\14.28.29333\INCLUDE\CERRNO
F:\Студия\VC\TOOLS\MSVC\14.28.29333\INCLUDE\STDEXCEPT
F:\Студия\VC\TOOLS\MSVC\14.28.29333\INCLUDE\EXCEPTION
C:\PROGRAM FILES (X86)\WINDOWS KITS\10\INCLUDE\10.0.18362.0\UCRT\MALLOC.H
F:\Студия\VC\TOOLS\MSVC\14.28.29333\INCLUDE\VCRUNTIME_EXCEPTION.H
F:\Студия\VC\TOOLS\MSVC\14.28.29333\INCLUDE\EH.H
C:\PROGRAM FILES (X86)\WINDOWS KITS\10\INCLUDE\10.0.18362.0\UCRT\CORECRT_TERMINATE.H
F:\Студия\VC\TOOLS\MSVC\14.28.29333\INCLUDE\XSTRING
F:\Студия\VC\TOOLS\MSVC\14.28.29333\INCLUDE\XMEMORY
F:\Студия\VC\TOOLS\MSVC\14.28.29333\INCLUDE\CSTDINT
F:\Студия\VC\TOOLS\MSVC\14.28.29333\INCLUDE\STDINT.H
F:\Студия\VC\TOOLS\MSVC\14.28.29333\INCLUDE\LIMITS
F:\Студия\VC\TOOLS\MSVC\14.28.29333\INCLUDE\CFLOAT
C:\PROGRAM FILES (X86)\WINDOWS KITS\10\INCLUDE\10.0.18362.0\UCRT\FLOAT.H
F:\Студия\VC\TOOLS\MSVC\14.28.29333\INCLUDE\INTRIN0.H
F:\Студия\VC\TOOLS\MSVC\14.28.29333\INCLUDE\ISA_AVAILABILITY.H
F:\Студия\VC\TOOLS\MSVC\14.28.29333\INCLUDE\NEW
F:\Студия\VC\TOOLS\MSVC\14.28.29333\INCLUDE\XATOMIC.H
F:\Студия\VC\TOOLS\MSVC\14.28.29333\INCLUDE\XCALL_ONCE.H
F:\Студия\VC\TOOLS\MSVC\14.28.29333\INCLUDE\XERRC.H
F:\Студия\VC\TOOLS\MSVC\14.28.29333\INCLUDE\ATOMIC
F:\Студия\VC\TOOLS\MSVC\14.28.29333\INCLUDE\XTHREADS.H
F:\Студия\VC\TOOLS\MSVC\14.28.29333\INCLUDE\XTIMEC.H
C:\PROGRAM FILES (X86)\WINDOWS KITS\10\INCLUDE\10.0.18362.0\UCRT\TIME.H
F:\Студия\VC\TOOLS\MSVC\14.28.29333\INCLUDE\XLOCALE
F:\Студия\VC\TOOLS\MSVC\14.28.29333\INCLUDE\MEMORY
F:\Студия\VC\TOOLS\MSVC\14.28.29333\INCLUDE\TYPEINFO
F:\Студия\VC\TOOLS\MSVC\14.28.29333\INCLUDE\VCRUNTIME_TYPEINFO.H
F:\Студия\VC\TOOLS\MSVC\14.28.29333\INCLUDE\XFACET
F:\Студия\VC\TOOLS\MSVC\14.28.29333\INCLUDE\XLOCINFO
F:\Студия\VC\TOOLS\MSVC\14.28.29333\INCLUDE\XLOCINFO.H
C:\PROGRAM FILES (X86)\WINDOWS KITS\10\INCLUDE\10.0.18362.0\UCRT\CTYPE.H
C:\PROGRAM FILES (X86)\WINDOWS KITS\10\INCLUDE\10.0.18362.0\UCRT\LOCALE.H
